{"uuid":"94800852-1e0e-4e08-b468-a2eee7181833","historyId":"f970e403ea9bbbac7540f7f6513b6062","status":"passed","statusDetails":null,"stage":"finished","steps":[{"status":"passed","statusDetails":{},"stage":"finished","steps":[],"attachments":[],"parameters":[],"start":1685041121234,"name":"Given A base Url for API Test","stop":1685041121357},{"status":"passed","statusDetails":{},"stage":"finished","steps":[{"status":"passed","statusDetails":{},"stage":"finished","steps":[],"attachments":[],"parameters":[],"start":1685041121246,"name":"GET 200 /api/users?page=2","stop":1685041121298},{"status":"passed","statusDetails":{},"stage":"finished","steps":[],"attachments":[],"parameters":[],"start":1685041121298,"name":"as (\"response\")","stop":1685041121299}],"attachments":[],"parameters":[],"start":1685041121245,"name":"When We request the API","stop":1685041121357},{"status":"passed","statusDetails":{},"stage":"finished","steps":[{"status":"passed","statusDetails":{},"stage":"finished","steps":[],"attachments":[],"parameters":[],"start":1685041121309,"name":"get @response","stop":1685041121311},{"status":"passed","statusDetails":{},"stage":"finished","steps":[],"attachments":[],"parameters":[],"start":1685041121312,"name":"its .status","stop":1685041121319},{"status":"passed","statusDetails":{},"stage":"finished","steps":[],"attachments":[],"parameters":[{"name":"actual","value":200},{"name":"expected","value":200}],"start":1685041121319,"name":"assert expected **200** to equal **200**","stop":1685041121319}],"attachments":[],"parameters":[],"start":1685041121308,"name":"Then The response status code should be 200","stop":1685041121357},{"status":"passed","statusDetails":{},"stage":"finished","steps":[{"status":"passed","statusDetails":{},"stage":"finished","steps":[],"attachments":[],"parameters":[],"start":1685041121333,"name":"get @response","stop":1685041121335},{"status":"passed","statusDetails":{},"stage":"finished","steps":[],"attachments":[],"parameters":[],"start":1685041121335,"name":"its .body","stop":1685041121341},{"status":"passed","statusDetails":{},"stage":"finished","steps":[],"attachments":[],"parameters":[{"name":"actual","value":"{\n  \"page\": 2,\n  \"per_page\": 6,\n  \"total\": 12,\n  \"total_pages\": 2,\n  \"data\": [\n    {\n      \"id\": 7,\n      \"email\": \"michael.lawson@reqres.in\",\n      \"first_name\": \"Michael\",\n      \"last_name\": \"Lawson\",\n      \"avatar\": \"https://reqres.in/img/faces/7-image.jpg\"\n    },\n    {\n      \"id\": 8,\n      \"email\": \"lindsay.ferguson@reqres.in\",\n      \"first_name\": \"Lindsay\",\n      \"last_name\": \"Ferguson\",\n      \"avatar\": \"https://reqres.in/img/faces/8-image.jpg\"\n    },\n    {\n      \"id\": 9,\n      \"email\": \"tobias.funke@reqres.in\",\n      \"first_name\": \"Tobias\",\n      \"last_name\": \"Funke\",\n      \"avatar\": \"https://reqres.in/img/faces/9-image.jpg\"\n    },\n    {\n      \"id\": 10,\n      \"email\": \"byron.fields@reqres.in\",\n      \"first_name\": \"Byron\",\n      \"last_name\": \"Fields\",\n      \"avatar\": \"https://reqres.in/img/faces/10-image.jpg\"\n    },\n    {\n      \"id\": 11,\n      \"email\": \"george.edwards@reqres.in\",\n      \"first_name\": \"George\",\n      \"last_name\": \"Edwards\",\n      \"avatar\": \"https://reqres.in/img/faces/11-image.jpg\"\n    },\n    {\n      \"id\": 12,\n      \"email\": \"rachel.howell@reqres.in\",\n      \"first_name\": \"Rachel\",\n      \"last_name\": \"Howell\",\n      \"avatar\": \"https://reqres.in/img/faces/12-image.jpg\"\n    }\n  ],\n  \"support\": {\n    \"url\": \"https://reqres.in/#support-heading\",\n    \"text\": \"To keep ReqRes free, contributions towards server costs are appreciated!\"\n  }\n}"}],"start":1685041121341,"name":"assert expected **{ Object (page, per_page, ...) }** to have property **page**","stop":1685041121341},{"status":"passed","statusDetails":{},"stage":"finished","steps":[],"attachments":[],"parameters":[],"start":1685041121341,"name":"get @response","stop":1685041121342},{"status":"passed","statusDetails":{},"stage":"finished","steps":[],"attachments":[],"parameters":[],"start":1685041121342,"name":"its .body","stop":1685041121344},{"status":"passed","statusDetails":{},"stage":"finished","steps":[],"attachments":[],"parameters":[{"name":"actual","value":"{\n  \"page\": 2,\n  \"per_page\": 6,\n  \"total\": 12,\n  \"total_pages\": 2,\n  \"data\": [\n    {\n      \"id\": 7,\n      \"email\": \"michael.lawson@reqres.in\",\n      \"first_name\": \"Michael\",\n      \"last_name\": \"Lawson\",\n      \"avatar\": \"https://reqres.in/img/faces/7-image.jpg\"\n    },\n    {\n      \"id\": 8,\n      \"email\": \"lindsay.ferguson@reqres.in\",\n      \"first_name\": \"Lindsay\",\n      \"last_name\": \"Ferguson\",\n      \"avatar\": \"https://reqres.in/img/faces/8-image.jpg\"\n    },\n    {\n      \"id\": 9,\n      \"email\": \"tobias.funke@reqres.in\",\n      \"first_name\": \"Tobias\",\n      \"last_name\": \"Funke\",\n      \"avatar\": \"https://reqres.in/img/faces/9-image.jpg\"\n    },\n    {\n      \"id\": 10,\n      \"email\": \"byron.fields@reqres.in\",\n      \"first_name\": \"Byron\",\n      \"last_name\": \"Fields\",\n      \"avatar\": \"https://reqres.in/img/faces/10-image.jpg\"\n    },\n    {\n      \"id\": 11,\n      \"email\": \"george.edwards@reqres.in\",\n      \"first_name\": \"George\",\n      \"last_name\": \"Edwards\",\n      \"avatar\": \"https://reqres.in/img/faces/11-image.jpg\"\n    },\n    {\n      \"id\": 12,\n      \"email\": \"rachel.howell@reqres.in\",\n      \"first_name\": \"Rachel\",\n      \"last_name\": \"Howell\",\n      \"avatar\": \"https://reqres.in/img/faces/12-image.jpg\"\n    }\n  ],\n  \"support\": {\n    \"url\": \"https://reqres.in/#support-heading\",\n    \"text\": \"To keep ReqRes free, contributions towards server costs are appreciated!\"\n  }\n}"}],"start":1685041121344,"name":"assert expected **{ Object (page, per_page, ...) }** to have property **per_page**","stop":1685041121344},{"status":"passed","statusDetails":{},"stage":"finished","steps":[],"attachments":[],"parameters":[],"start":1685041121344,"name":"get @response","stop":1685041121345},{"status":"passed","statusDetails":{},"stage":"finished","steps":[],"attachments":[],"parameters":[],"start":1685041121345,"name":"its .body","stop":1685041121347},{"status":"passed","statusDetails":{},"stage":"finished","steps":[],"attachments":[],"parameters":[{"name":"actual","value":"{\n  \"page\": 2,\n  \"per_page\": 6,\n  \"total\": 12,\n  \"total_pages\": 2,\n  \"data\": [\n    {\n      \"id\": 7,\n      \"email\": \"michael.lawson@reqres.in\",\n      \"first_name\": \"Michael\",\n      \"last_name\": \"Lawson\",\n      \"avatar\": \"https://reqres.in/img/faces/7-image.jpg\"\n    },\n    {\n      \"id\": 8,\n      \"email\": \"lindsay.ferguson@reqres.in\",\n      \"first_name\": \"Lindsay\",\n      \"last_name\": \"Ferguson\",\n      \"avatar\": \"https://reqres.in/img/faces/8-image.jpg\"\n    },\n    {\n      \"id\": 9,\n      \"email\": \"tobias.funke@reqres.in\",\n      \"first_name\": \"Tobias\",\n      \"last_name\": \"Funke\",\n      \"avatar\": \"https://reqres.in/img/faces/9-image.jpg\"\n    },\n    {\n      \"id\": 10,\n      \"email\": \"byron.fields@reqres.in\",\n      \"first_name\": \"Byron\",\n      \"last_name\": \"Fields\",\n      \"avatar\": \"https://reqres.in/img/faces/10-image.jpg\"\n    },\n    {\n      \"id\": 11,\n      \"email\": \"george.edwards@reqres.in\",\n      \"first_name\": \"George\",\n      \"last_name\": \"Edwards\",\n      \"avatar\": \"https://reqres.in/img/faces/11-image.jpg\"\n    },\n    {\n      \"id\": 12,\n      \"email\": \"rachel.howell@reqres.in\",\n      \"first_name\": \"Rachel\",\n      \"last_name\": \"Howell\",\n      \"avatar\": \"https://reqres.in/img/faces/12-image.jpg\"\n    }\n  ],\n  \"support\": {\n    \"url\": \"https://reqres.in/#support-heading\",\n    \"text\": \"To keep ReqRes free, contributions towards server costs are appreciated!\"\n  }\n}"}],"start":1685041121347,"name":"assert expected **{ Object (page, per_page, ...) }** to have property **total**","stop":1685041121347},{"status":"passed","statusDetails":{},"stage":"finished","steps":[],"attachments":[],"parameters":[],"start":1685041121347,"name":"get @response","stop":1685041121348},{"status":"passed","statusDetails":{},"stage":"finished","steps":[],"attachments":[],"parameters":[],"start":1685041121348,"name":"its .body","stop":1685041121350},{"status":"passed","statusDetails":{},"stage":"finished","steps":[],"attachments":[],"parameters":[{"name":"actual","value":"{\n  \"page\": 2,\n  \"per_page\": 6,\n  \"total\": 12,\n  \"total_pages\": 2,\n  \"data\": [\n    {\n      \"id\": 7,\n      \"email\": \"michael.lawson@reqres.in\",\n      \"first_name\": \"Michael\",\n      \"last_name\": \"Lawson\",\n      \"avatar\": \"https://reqres.in/img/faces/7-image.jpg\"\n    },\n    {\n      \"id\": 8,\n      \"email\": \"lindsay.ferguson@reqres.in\",\n      \"first_name\": \"Lindsay\",\n      \"last_name\": \"Ferguson\",\n      \"avatar\": \"https://reqres.in/img/faces/8-image.jpg\"\n    },\n    {\n      \"id\": 9,\n      \"email\": \"tobias.funke@reqres.in\",\n      \"first_name\": \"Tobias\",\n      \"last_name\": \"Funke\",\n      \"avatar\": \"https://reqres.in/img/faces/9-image.jpg\"\n    },\n    {\n      \"id\": 10,\n      \"email\": \"byron.fields@reqres.in\",\n      \"first_name\": \"Byron\",\n      \"last_name\": \"Fields\",\n      \"avatar\": \"https://reqres.in/img/faces/10-image.jpg\"\n    },\n    {\n      \"id\": 11,\n      \"email\": \"george.edwards@reqres.in\",\n      \"first_name\": \"George\",\n      \"last_name\": \"Edwards\",\n      \"avatar\": \"https://reqres.in/img/faces/11-image.jpg\"\n    },\n    {\n      \"id\": 12,\n      \"email\": \"rachel.howell@reqres.in\",\n      \"first_name\": \"Rachel\",\n      \"last_name\": \"Howell\",\n      \"avatar\": \"https://reqres.in/img/faces/12-image.jpg\"\n    }\n  ],\n  \"support\": {\n    \"url\": \"https://reqres.in/#support-heading\",\n    \"text\": \"To keep ReqRes free, contributions towards server costs are appreciated!\"\n  }\n}"}],"start":1685041121350,"name":"assert expected **{ Object (page, per_page, ...) }** to have property **total_pages**","stop":1685041121350}],"attachments":[],"parameters":[],"start":1685041121331,"name":"Then List user response should have all properties","stop":1685041121357}],"attachments":[],"parameters":[],"labels":[{"name":"package","value":"cypress.e2e.features.apitesting.feature"},{"name":"suite","value":"API Testing"},{"name":"feature","value":"API Testing"}],"links":[],"start":1685041121215,"name":"API Testing for Page 2","fullName":"API Testing for Page 2","stop":1685041121357}