{"uuid":"e4cbe823-9c2c-4b1b-a53a-25521eff373e","historyId":"f970e403ea9bbbac7540f7f6513b6062","status":"passed","statusDetails":null,"stage":"finished","steps":[{"status":"passed","statusDetails":{},"stage":"finished","steps":[],"attachments":[],"parameters":[],"start":1685041239264,"name":"Given A base Url for API Test","stop":1685041239380},{"status":"passed","statusDetails":{},"stage":"finished","steps":[{"status":"passed","statusDetails":{},"stage":"finished","steps":[],"attachments":[],"parameters":[],"start":1685041239274,"name":"GET 200 /api/users?page=2","stop":1685041239326},{"status":"passed","statusDetails":{},"stage":"finished","steps":[],"attachments":[],"parameters":[],"start":1685041239326,"name":"as (\"response\")","stop":1685041239328}],"attachments":[],"parameters":[],"start":1685041239272,"name":"When We request the API","stop":1685041239380},{"status":"passed","statusDetails":{},"stage":"finished","steps":[{"status":"passed","statusDetails":{},"stage":"finished","steps":[],"attachments":[],"parameters":[],"start":1685041239336,"name":"get @response","stop":1685041239339},{"status":"passed","statusDetails":{},"stage":"finished","steps":[],"attachments":[],"parameters":[],"start":1685041239339,"name":"its .status","stop":1685041239348},{"status":"passed","statusDetails":{},"stage":"finished","steps":[],"attachments":[],"parameters":[{"name":"actual","value":200},{"name":"expected","value":200}],"start":1685041239348,"name":"assert expected **200** to equal **200**","stop":1685041239348}],"attachments":[],"parameters":[],"start":1685041239335,"name":"Then The response status code should be 200","stop":1685041239380},{"status":"passed","statusDetails":{},"stage":"finished","steps":[{"status":"passed","statusDetails":{},"stage":"finished","steps":[],"attachments":[],"parameters":[],"start":1685041239361,"name":"get @response","stop":1685041239362},{"status":"passed","statusDetails":{},"stage":"finished","steps":[],"attachments":[],"parameters":[],"start":1685041239362,"name":"its .body","stop":1685041239366},{"status":"passed","statusDetails":{},"stage":"finished","steps":[],"attachments":[],"parameters":[{"name":"actual","value":"{\n  \"page\": 2,\n  \"per_page\": 6,\n  \"total\": 12,\n  \"total_pages\": 2,\n  \"data\": [\n    {\n      \"id\": 7,\n      \"email\": \"michael.lawson@reqres.in\",\n      \"first_name\": \"Michael\",\n      \"last_name\": \"Lawson\",\n      \"avatar\": \"https://reqres.in/img/faces/7-image.jpg\"\n    },\n    {\n      \"id\": 8,\n      \"email\": \"lindsay.ferguson@reqres.in\",\n      \"first_name\": \"Lindsay\",\n      \"last_name\": \"Ferguson\",\n      \"avatar\": \"https://reqres.in/img/faces/8-image.jpg\"\n    },\n    {\n      \"id\": 9,\n      \"email\": \"tobias.funke@reqres.in\",\n      \"first_name\": \"Tobias\",\n      \"last_name\": \"Funke\",\n      \"avatar\": \"https://reqres.in/img/faces/9-image.jpg\"\n    },\n    {\n      \"id\": 10,\n      \"email\": \"byron.fields@reqres.in\",\n      \"first_name\": \"Byron\",\n      \"last_name\": \"Fields\",\n      \"avatar\": \"https://reqres.in/img/faces/10-image.jpg\"\n    },\n    {\n      \"id\": 11,\n      \"email\": \"george.edwards@reqres.in\",\n      \"first_name\": \"George\",\n      \"last_name\": \"Edwards\",\n      \"avatar\": \"https://reqres.in/img/faces/11-image.jpg\"\n    },\n    {\n      \"id\": 12,\n      \"email\": \"rachel.howell@reqres.in\",\n      \"first_name\": \"Rachel\",\n      \"last_name\": \"Howell\",\n      \"avatar\": \"https://reqres.in/img/faces/12-image.jpg\"\n    }\n  ],\n  \"support\": {\n    \"url\": \"https://reqres.in/#support-heading\",\n    \"text\": \"To keep ReqRes free, contributions towards server costs are appreciated!\"\n  }\n}"}],"start":1685041239366,"name":"assert expected **{ Object (page, per_page, ...) }** to have property **page**","stop":1685041239366},{"status":"passed","statusDetails":{},"stage":"finished","steps":[],"attachments":[],"parameters":[],"start":1685041239366,"name":"get @response","stop":1685041239367},{"status":"passed","statusDetails":{},"stage":"finished","steps":[],"attachments":[],"parameters":[],"start":1685041239367,"name":"its .body","stop":1685041239370},{"status":"passed","statusDetails":{},"stage":"finished","steps":[],"attachments":[],"parameters":[{"name":"actual","value":"{\n  \"page\": 2,\n  \"per_page\": 6,\n  \"total\": 12,\n  \"total_pages\": 2,\n  \"data\": [\n    {\n      \"id\": 7,\n      \"email\": \"michael.lawson@reqres.in\",\n      \"first_name\": \"Michael\",\n      \"last_name\": \"Lawson\",\n      \"avatar\": \"https://reqres.in/img/faces/7-image.jpg\"\n    },\n    {\n      \"id\": 8,\n      \"email\": \"lindsay.ferguson@reqres.in\",\n      \"first_name\": \"Lindsay\",\n      \"last_name\": \"Ferguson\",\n      \"avatar\": \"https://reqres.in/img/faces/8-image.jpg\"\n    },\n    {\n      \"id\": 9,\n      \"email\": \"tobias.funke@reqres.in\",\n      \"first_name\": \"Tobias\",\n      \"last_name\": \"Funke\",\n      \"avatar\": \"https://reqres.in/img/faces/9-image.jpg\"\n    },\n    {\n      \"id\": 10,\n      \"email\": \"byron.fields@reqres.in\",\n      \"first_name\": \"Byron\",\n      \"last_name\": \"Fields\",\n      \"avatar\": \"https://reqres.in/img/faces/10-image.jpg\"\n    },\n    {\n      \"id\": 11,\n      \"email\": \"george.edwards@reqres.in\",\n      \"first_name\": \"George\",\n      \"last_name\": \"Edwards\",\n      \"avatar\": \"https://reqres.in/img/faces/11-image.jpg\"\n    },\n    {\n      \"id\": 12,\n      \"email\": \"rachel.howell@reqres.in\",\n      \"first_name\": \"Rachel\",\n      \"last_name\": \"Howell\",\n      \"avatar\": \"https://reqres.in/img/faces/12-image.jpg\"\n    }\n  ],\n  \"support\": {\n    \"url\": \"https://reqres.in/#support-heading\",\n    \"text\": \"To keep ReqRes free, contributions towards server costs are appreciated!\"\n  }\n}"}],"start":1685041239370,"name":"assert expected **{ Object (page, per_page, ...) }** to have property **per_page**","stop":1685041239370},{"status":"passed","statusDetails":{},"stage":"finished","steps":[],"attachments":[],"parameters":[],"start":1685041239370,"name":"get @response","stop":1685041239370},{"status":"passed","statusDetails":{},"stage":"finished","steps":[],"attachments":[],"parameters":[],"start":1685041239371,"name":"its .body","stop":1685041239373},{"status":"passed","statusDetails":{},"stage":"finished","steps":[],"attachments":[],"parameters":[{"name":"actual","value":"{\n  \"page\": 2,\n  \"per_page\": 6,\n  \"total\": 12,\n  \"total_pages\": 2,\n  \"data\": [\n    {\n      \"id\": 7,\n      \"email\": \"michael.lawson@reqres.in\",\n      \"first_name\": \"Michael\",\n      \"last_name\": \"Lawson\",\n      \"avatar\": \"https://reqres.in/img/faces/7-image.jpg\"\n    },\n    {\n      \"id\": 8,\n      \"email\": \"lindsay.ferguson@reqres.in\",\n      \"first_name\": \"Lindsay\",\n      \"last_name\": \"Ferguson\",\n      \"avatar\": \"https://reqres.in/img/faces/8-image.jpg\"\n    },\n    {\n      \"id\": 9,\n      \"email\": \"tobias.funke@reqres.in\",\n      \"first_name\": \"Tobias\",\n      \"last_name\": \"Funke\",\n      \"avatar\": \"https://reqres.in/img/faces/9-image.jpg\"\n    },\n    {\n      \"id\": 10,\n      \"email\": \"byron.fields@reqres.in\",\n      \"first_name\": \"Byron\",\n      \"last_name\": \"Fields\",\n      \"avatar\": \"https://reqres.in/img/faces/10-image.jpg\"\n    },\n    {\n      \"id\": 11,\n      \"email\": \"george.edwards@reqres.in\",\n      \"first_name\": \"George\",\n      \"last_name\": \"Edwards\",\n      \"avatar\": \"https://reqres.in/img/faces/11-image.jpg\"\n    },\n    {\n      \"id\": 12,\n      \"email\": \"rachel.howell@reqres.in\",\n      \"first_name\": \"Rachel\",\n      \"last_name\": \"Howell\",\n      \"avatar\": \"https://reqres.in/img/faces/12-image.jpg\"\n    }\n  ],\n  \"support\": {\n    \"url\": \"https://reqres.in/#support-heading\",\n    \"text\": \"To keep ReqRes free, contributions towards server costs are appreciated!\"\n  }\n}"}],"start":1685041239373,"name":"assert expected **{ Object (page, per_page, ...) }** to have property **total**","stop":1685041239373},{"status":"passed","statusDetails":{},"stage":"finished","steps":[],"attachments":[],"parameters":[],"start":1685041239373,"name":"get @response","stop":1685041239374},{"status":"passed","statusDetails":{},"stage":"finished","steps":[],"attachments":[],"parameters":[],"start":1685041239374,"name":"its .body","stop":1685041239376},{"status":"passed","statusDetails":{},"stage":"finished","steps":[],"attachments":[],"parameters":[{"name":"actual","value":"{\n  \"page\": 2,\n  \"per_page\": 6,\n  \"total\": 12,\n  \"total_pages\": 2,\n  \"data\": [\n    {\n      \"id\": 7,\n      \"email\": \"michael.lawson@reqres.in\",\n      \"first_name\": \"Michael\",\n      \"last_name\": \"Lawson\",\n      \"avatar\": \"https://reqres.in/img/faces/7-image.jpg\"\n    },\n    {\n      \"id\": 8,\n      \"email\": \"lindsay.ferguson@reqres.in\",\n      \"first_name\": \"Lindsay\",\n      \"last_name\": \"Ferguson\",\n      \"avatar\": \"https://reqres.in/img/faces/8-image.jpg\"\n    },\n    {\n      \"id\": 9,\n      \"email\": \"tobias.funke@reqres.in\",\n      \"first_name\": \"Tobias\",\n      \"last_name\": \"Funke\",\n      \"avatar\": \"https://reqres.in/img/faces/9-image.jpg\"\n    },\n    {\n      \"id\": 10,\n      \"email\": \"byron.fields@reqres.in\",\n      \"first_name\": \"Byron\",\n      \"last_name\": \"Fields\",\n      \"avatar\": \"https://reqres.in/img/faces/10-image.jpg\"\n    },\n    {\n      \"id\": 11,\n      \"email\": \"george.edwards@reqres.in\",\n      \"first_name\": \"George\",\n      \"last_name\": \"Edwards\",\n      \"avatar\": \"https://reqres.in/img/faces/11-image.jpg\"\n    },\n    {\n      \"id\": 12,\n      \"email\": \"rachel.howell@reqres.in\",\n      \"first_name\": \"Rachel\",\n      \"last_name\": \"Howell\",\n      \"avatar\": \"https://reqres.in/img/faces/12-image.jpg\"\n    }\n  ],\n  \"support\": {\n    \"url\": \"https://reqres.in/#support-heading\",\n    \"text\": \"To keep ReqRes free, contributions towards server costs are appreciated!\"\n  }\n}"}],"start":1685041239376,"name":"assert expected **{ Object (page, per_page, ...) }** to have property **total_pages**","stop":1685041239376}],"attachments":[],"parameters":[],"start":1685041239358,"name":"Then List user response should have all properties","stop":1685041239381}],"attachments":[],"parameters":[],"labels":[{"name":"package","value":"cypress.e2e.features.apitesting.feature"},{"name":"suite","value":"API Testing"},{"name":"feature","value":"API Testing"}],"links":[],"start":1685041239245,"name":"API Testing for Page 2","fullName":"API Testing for Page 2","stop":1685041239381}